%YAML 1.1
%TAG !u! tag:unity3d.com,2011:
--- !u!21 &2100000
Material:
  serializedVersion: 6
  m_ObjectHideFlags: 0
  m_CorrespondingSourceObject: {fileID: 0}
  m_PrefabInstance: {fileID: 0}
  m_PrefabAsset: {fileID: 0}
  m_Name: BloodyWater
  m_Shader: {fileID: -6465566751694194690, guid: 1549056ed6ff57540bc269eb79bf73ae, type: 3}
  m_ShaderKeywords: 
  m_LightmapFlags: 4
  m_EnableInstancingVariants: 0
  m_DoubleSidedGI: 0
  m_CustomRenderQueue: -1
  stringTagMap: {}
  disabledShaderPasses: []
  m_SavedProperties:
    serializedVersion: 3
    m_TexEnvs:
    - Texture2D_6b1d5b41696f4c5d846da972cccc0730:
        m_Texture: {fileID: 2800000, guid: c2c13eb5337d4584f953c86ffaf740cf, type: 3}
        m_Scale: {x: 1, y: 1}
        m_Offset: {x: 0, y: 0}
    - unity_Lightmaps:
        m_Texture: {fileID: 0}
        m_Scale: {x: 1, y: 1}
        m_Offset: {x: 0, y: 0}
    - unity_LightmapsInd:
        m_Texture: {fileID: 0}
        m_Scale: {x: 1, y: 1}
        m_Offset: {x: 0, y: 0}
    - unity_ShadowMasks:
        m_Texture: {fileID: 0}
        m_Scale: {x: 1, y: 1}
        m_Offset: {x: 0, y: 0}
    m_Floats:
    - Vector1_4c86d240d72042e2a064e4438decc09b: 0.01
    - Vector1_c15c3b9eed5d41f1b1f3ceb3e1c1b229: 0.56
    - Vector1_c3d21ba066904662b200f1194ac108e2: 0.76
    - Vector1_ebc0c90a1605474f9ca2df5a79e7ca1c: 1.61
    m_Colors:
    - Color_ad682f2292c04cd89f9ba7f6f1ce393d: {r: 0.87058824, g: 0, b: 0, a: 1}
    - _Color: {r: 0.6597825, g: 0, b: 0, a: 1}
  m_BuildTextureStacks: []
