%YAML 1.1
%TAG !u! tag:unity3d.com,2011:
--- !u!21 &2100000
Material:
  serializedVersion: 6
  m_ObjectHideFlags: 0
  m_CorrespondingSourceObject: {fileID: 0}
  m_PrefabInstance: {fileID: 0}
  m_PrefabAsset: {fileID: 0}
  m_Name: NexusCrystalBlue
  m_Shader: {fileID: -6465566751694194690, guid: 2ba4fb03dc06c33429565bace4028b47, type: 3}
  m_ShaderKeywords: 
  m_LightmapFlags: 4
  m_EnableInstancingVariants: 0
  m_DoubleSidedGI: 0
  m_CustomRenderQueue: -1
  stringTagMap: {}
  disabledShaderPasses: []
  m_SavedProperties:
    serializedVersion: 3
    m_TexEnvs:
    - Texture2D_9fe175983c1843fda8e3add3cbcf7aca:
        m_Texture: {fileID: 0}
        m_Scale: {x: 1, y: 1}
        m_Offset: {x: 0, y: 0}
    - unity_Lightmaps:
        m_Texture: {fileID: 0}
        m_Scale: {x: 1, y: 1}
        m_Offset: {x: 0, y: 0}
    - unity_LightmapsInd:
        m_Texture: {fileID: 0}
        m_Scale: {x: 1, y: 1}
        m_Offset: {x: 0, y: 0}
    - unity_ShadowMasks:
        m_Texture: {fileID: 0}
        m_Scale: {x: 1, y: 1}
        m_Offset: {x: 0, y: 0}
    m_Floats:
    - Vector1_01970ef26035443490a5284d70568583: -1.5
    - Vector1_1603ed95db484681a3f989e74990a355: 0.6
    - Vector1_4f715ebb35eb41c1bcaa07755c06de6e: 0.1
    - Vector1_64244d6d30ff488496132e8a9e7115df: 0.72
    m_Colors:
    - Color_6d4bff323d5d486d907e93ba9efb3e32: {r: 0, g: 0, b: 0.50980395, a: 0}
    - Vector2_2376971cfb884dc7a3685c5b229f22e0: {r: 5, g: 5, b: 0, a: 0}
    - _Color: {r: 0, g: 0.045046996, b: 0.4301988, a: 1}
  m_BuildTextureStacks: []
